<?xml version="1.0" encoding="UTF-8"?>
<svg width="32px" height="32px" viewBox="0 0 32 32" version="1.1" xmlns="http://www.w3.org/2000/svg" xmlns:xlink="http://www.w3.org/1999/xlink">
    <!-- Generator: Sketch 54.1 (76490) - https://sketchapp.com -->
    <title>notifiche@3x</title>
    <desc>Created with Sketch.</desc>
    <g id="notifiche" stroke="none" stroke-width="1" fill="none" fill-rule="evenodd">
        <path d="M16.025641,27 C17.2666667,27 18.2820513,25.9846154 18.2820513,24.7435897 L13.7692308,24.7435897 C13.7692308,25.9846154 14.7733333,27 16.025641,27 Z M22.7948718,20.2307692 L22.7948718,14.5897436 C22.7948718,11.1261538 20.9446154,8.22666667 17.7179487,7.45948718 L17.7179487,6.69230769 C17.7179487,5.75589744 16.9620513,5 16.025641,5 C15.0892308,5 14.3333333,5.75589744 14.3333333,6.69230769 L14.3333333,7.45948718 C11.0953846,8.22666667 9.25641026,11.1148718 9.25641026,14.5897436 L9.25641026,20.2307692 L7,22.4871795 L7,23.6153846 L25.0512821,23.6153846 L25.0512821,22.4871795 L22.7948718,20.2307692 Z" id="Shape" fill="#373737" fill-rule="nonzero"></path>
    </g>
</svg>